^C:\USERS\BLANKET\SOURCE\REPOS\WAYWARDQUEST\WAYWARDQUEST\MAIN.CPP
/c /ZI /nologo /W3 /WX- /diagnostics:classic /sdl /Od /Oy- /D _MBCS /Gm /EHsc /RTC1 /MDd /GS /fp:precise /permissive- /Zc:wchar_t /Zc:forScope /Zc:inline /Fo"DEBUG\\" /Fd"DEBUG\VC141.PDB" /Gd /TP /analyze- C:\USERS\BLANKET\SOURCE\REPOS\WAYWARDQUEST\WAYWARDQUEST\MAIN.CPP
^C:\USERS\BLANKET\SOURCE\REPOS\WAYWARDQUEST\WAYWARDQUEST\ROOM.CPP
/c /ZI /nologo /W3 /WX- /diagnostics:classic /sdl /Od /Oy- /D _MBCS /Gm /EHsc /RTC1 /MDd /GS /fp:precise /permissive- /Zc:wchar_t /Zc:forScope /Zc:inline /Fo"DEBUG\\" /Fd"DEBUG\VC141.PDB" /Gd /TP /analyze- C:\USERS\BLANKET\SOURCE\REPOS\WAYWARDQUEST\WAYWARDQUEST\ROOM.CPP
