^C:\USERS\BLANKET\SOURCE\REPOS\WAYWARDQUEST\WAYWARDQUEST\DEBUG\MAIN.OBJ|C:\USERS\BLANKET\SOURCE\REPOS\WAYWARDQUEST\WAYWARDQUEST\DEBUG\ROOM.OBJ
C:\USERS\BLANKET\SOURCE\REPOS\WAYWARDQUEST\DEBUG\WAYWARDQUEST.EXE
C:\USERS\BLANKET\SOURCE\REPOS\WAYWARDQUEST\DEBUG\WAYWARDQUEST.ILK
C:\USERS\BLANKET\SOURCE\REPOS\WAYWARDQUEST\DEBUG\WAYWARDQUEST.PDB
